{
    "redis": {
        "host": "119.9.116.27",
        "port": 6379,
        "auth_pass": "bwhAmn&H-]V02w><"
    },
    "redislocal": {
        "port": 6379
    },
    "authenNode": {
        "inf": {
            "id": "Gravity.IO",
            "key": "daylapass"
        },
        "authenChannel": {
            "realTimeBets": "authenRealTimeBet",
            "agentAccounts": "authenAgentAccount"
        }
    },
    "channels": {
        "test": "ChannelTest",
        "realTimeBets": {
            "newBet": "RealTimeBet",
            "updatePT": "MemberPt",
            "newViolation": "NewViolations"
        },
        "agentAccounts": "AccountCaptcha"
    },
    "port": 3001
}